{
  "header": {
    "ID": "CONCERT/Demo_1",
    "version": "2022",
    "taskName": "CONCERT_Demo_1",
    "author": [
      "Matthias Mayer"
    ],
    "affiliation": [
      "Technical University of Munich"
    ],
    "email": [
      "matthias.mayer@tum.de"
    ],
    "tags": [
      "CONCERT",
      "Demo",
      "PTP",
      "Construction",
      "FHI"
    ],
    "date": "2022-01-25",
    "timeStepSize": 0.01,
    "gravity": [ 0, 0, -9.81 ]
  },
  "obstacles": [
    {
      "acknowledgement": "Frauenhofer Italia",
      "name": "Demo Room",
      "ID": "1001",
      "pose": [
        [ 1, 0, 0, -20 ],
        [ 0, 1, 0, -54 ],
        [ 0, 0, 1, -1 ],
        [ 0, 0, 0, 1 ]
      ],
      "visual": [
        {
          "pose": [
            [ 1, 0, 0, -20 ],
            [ 0, 1, 0, -54 ],
            [ 0, 0, 1, -1 ],
            [ 0, 0, 0, 1 ]
          ],
          "parameters": {
            "file": "assets/Model_Arena_STL.stl",
            "scale": 0.001
          },
          "type": "mesh"
        }
      ],
      "collision": [
        {
          "pose": [
            [ 1, 0, 0, -20 ],
            [ 0, 1, 0, -54 ],
            [ 0, 0, 1, -1 ],
            [ 0, 0, 0, 1 ]
          ],
          "parameters": {
            "file": "assets/Model_Arena_STL.stl",
            "scale": 0.001
          },
          "type": "mesh"
        }
      ]
    }
  ],
  "constraints": [
    {
      "type": "joint",
      "parts": [
        "q",
        "dq",
        "tau"
      ]
    },
    {
      "type": "selfCollisionFree"
    },
    {
      "type": "collisionFree"
    },
    {
      "type": "allGoalsFulfilled"
    },
    {
      "type": "basePlacement",
      "pose": {
        "nominal": [
          [ 1, 0, 0, 0 ],
          [ 0, 1, 0, 0 ],
          [ 0, 0, 1, 0 ],
          [ 0, 0, 0, 1 ]
        ]
      }
    }
  ],
  "goals": [
    {
      "ID": "1",
      "type": "at",
      "goalPose": {
        "nominal": [
          [ 1, 0, 0, 0.9 ],
          [ 0, 0, -1, -0.9 ],
          [ 0, 1, 0, 1 ],
          [ 0, 0, 0, 1 ]
        ],
        "toleranceProjection": [
          "r_sph",
          "Theta_R"
        ],
        "tolerance": [
          [ 0.0, 0.01 ],
          [ 0, 0.1 ]
        ]
      }
    },
    {
      "ID": "2",
      "type": "at",
      "goalPose": {
        "nominal": [
          [ 1, 0, 0, 0 ],
          [ 0, 0, -1, -0.9 ],
          [ 0, 1, 0, 1 ],
          [ 0, 0, 0, 1 ]
        ],
        "toleranceProjection": [
          "r_sph",
          "Theta_R"
        ],
        "tolerance": [
          [ 0.0, 0.01 ],
          [ 0, 0.1 ]
        ]
      }
    },
    {
      "ID": "3",
      "type": "at",
      "goalPose": {
        "nominal": [
          [ 1, 0, 0, -0.9 ],
          [ 0, 0, -1, -0.9 ],
          [ 0, 1, 0, 1 ],
          [ 0, 0, 0, 1 ]
        ],
        "toleranceProjection": [
          "r_sph",
          "Theta_R"
        ],
        "tolerance": [
          [ 0.0, 0.01 ],
          [ 0, 0.1 ]
        ]
      }
    }
  ]
}
